season,ep_num,ep_num_all,title,directed_by,written_by,original_air_date,us_viewers_mil,imdb_rating,desc,Column,us_viewers
1,1,1,"Good News, Bad News",Art Wolff,Larry David,5-Jul-89,15.4,7.5,Jerry and George argue whether an overnight visitor Jerry is expecting is coming with romantic intentions.,,"15,400,000"
1,1,1,"Good News, Bad News",Art Wolff,Jerry Seinfeld,5-Jul-89,15.4,7.5,Jerry and George argue whether an overnight visitor Jerry is expecting is coming with romantic intentions.,,"15,400,000"
1,2,2,The Stakeout,Tom Cherones,Larry David,31-May-90,22.5,7.6,Jerry and George stake out the lobby of an office building to find a woman Jerry met at a party but whose name and phone number he didn't get.,,"22,500,000"
1,2,2,The Stakeout,Tom Cherones,Jerry Seinfeld,31-May-90,22.5,7.6,Jerry and George stake out the lobby of an office building to find a woman Jerry met at a party but whose name and phone number he didn't get.,,"22,500,000"
1,3,3,The Robbery,Tom Cherones,Matt Goldman,7-Jun-90,19.7,7.6,"After Jerry's apartment is robbed, Jerry starts to look for other apartments. But Jerry and George both want the same apartment, and Elaine wants the apartment of whoever loses out.",,"19,700,000"
1,4,4,Male Unbonding,Tom Cherones,Larry David,14-Jun-90,19.1,7.3,Jerry tries various excuses to avoid meeting with an old friend with whom he no longer shares any interests.,,"19,100,000"
1,4,4,Male Unbonding,Tom Cherones,Jerry Seinfeld,14-Jun-90,19.1,7.3,Jerry tries various excuses to avoid meeting with an old friend with whom he no longer shares any interests.,,"19,100,000"
1,5,5,The Stock Tip,Tom Cherones,Larry David,21-Jun-90,19.4,7.5,Jerry becomes apprehensive when he and George buy stock and the price falls while the person who suggested the stock is in hospital and can't tell them when to sell.,,"19,400,000"
1,5,5,The Stock Tip,Tom Cherones,Jerry Seinfeld,21-Jun-90,19.4,7.5,Jerry becomes apprehensive when he and George buy stock and the price falls while the person who suggested the stock is in hospital and can't tell them when to sell.,,"19,400,000"
2,1,6,The Ex-Girlfriend,Tom Cherones,Larry David,23-Jan-91,15.6,7.7,"After George breaks up with his girlfriend, Jerry decides that he wants to see her.",,"15,600,000"
2,1,6,The Ex-Girlfriend,Tom Cherones,Jerry Seinfeld,23-Jan-91,15.6,7.7,"After George breaks up with his girlfriend, Jerry decides that he wants to see her.",,"15,600,000"
2,2,7,The Pony Remark,Tom Cherones,Larry David,30-Jan-91,15.2,7.9,Jerry fears that an inappropriate comment he made at a dinner party caused his relative's subsequent death.,,"15,200,000"
2,2,7,The Pony Remark,Tom Cherones,Jerry Seinfeld,30-Jan-91,15.2,7.9,Jerry fears that an inappropriate comment he made at a dinner party caused his relative's subsequent death.,,"15,200,000"
2,3,8,The Jacket,Tom Cherones,Larry David,6-Feb-91,14.8,8.3,"Jerry wears an expensive jacket when he meets Elaine's father, but an argument ensues when Jerry is reluctant to wear it outside during a snowfall.",,"14,800,000"
2,3,8,The Jacket,Tom Cherones,Jerry Seinfeld,6-Feb-91,14.8,8.3,"Jerry wears an expensive jacket when he meets Elaine's father, but an argument ensues when Jerry is reluctant to wear it outside during a snowfall.",,"14,800,000"
2,4,9,The Phone Message,Tom Cherones,Larry David,13-Feb-91,13.6,8.3,"George leaves several awkward messages on a girlfriend's answering machine, then decides to steal the tape.",,"13,600,000"
2,4,9,The Phone Message,Tom Cherones,Jerry Seinfeld,13-Feb-91,13.6,8.3,"George leaves several awkward messages on a girlfriend's answering machine, then decides to steal the tape.",,"13,600,000"
2,5,10,The Apartment,Tom Cherones,Peter Mehlman,4-Apr-91,24.7,7.8,"When an apartment becomes available in Jerry's building, he helps Elaine get it, only to regret his decision to do so. George starts wearing a wedding ring because he's heard that it helps single guys pick up women.",,"24,700,000"
2,6,11,The Statue,Tom Cherones,Larry Charles,11-Apr-91,23.3,7.9,A statue wanted by George is stolen from Jerry's apartment by the boyfriend of a writer Elaine is working with.,,"23,300,000"
2,7,12,The Revenge,Tom Cherones,Larry David,18-Apr-91,19.6,8.2,"George takes revenge on his boss for not hiring him back after he quit and was rude to him, and Jerry and Kramer take revenge on a dry cleaner after Jerry accuses him of stealing $1,500 from his laundry bag.",,"19,600,000"
2,8,13,The Heart Attack,Tom Cherones,Larry Charles,25-Apr-91,20.6,7.7,"After suffering what he thinks is a heart attack, George discovers he has inflamed tonsils and seeks alternative medicine to heal.",,"20,600,000"
2,9,14,The Deal,Tom Cherones,Larry David,2-May-91,22.9,8.1,"Jerry and Elaine believe that they have found a foolproof way to start having sex again yet still remain just friends, but they quickly start encountering problems.",,"22,900,000"
2,10,15,The Baby Shower,Tom Cherones,Larry Charles,16-May-91,17.2,7.3,"Kramer convinces Jerry to get illegal cable. Elaine holds a baby shower for a former girlfriend of George, on whom he wants revenge for a callous incident.",,"17,200,000"
2,11,16,The Chinese Restaurant,Tom Cherones,Larry David,23-May-91,16.8,8.6,"Jerry, Elaine and George stop for a quick Chinese dinner before seeing ""Plan 9 From Outer Space,"" but circumstances at the eatery make them miss the movie.",,"16,800,000"
2,11,16,The Chinese Restaurant,Tom Cherones,Jerry Seinfeld,23-May-91,16.8,8.6,"Jerry, Elaine and George stop for a quick Chinese dinner before seeing ""Plan 9 From Outer Space,"" but circumstances at the eatery make them miss the movie.",,"16,800,000"
2,12,17,The Busboy,Tom Cherones,Larry David,26-Jun-91,12.5,7.6,"George tries to apologize to a busboy after one of his comments got him fired, but he only makes things worse. Elaine tries to get one of her male friends out of her house.",,"12,500,000"
2,12,17,The Busboy,Tom Cherones,Jerry Seinfeld,26-Jun-91,12.5,7.6,"George tries to apologize to a busboy after one of his comments got him fired, but he only makes things worse. Elaine tries to get one of her male friends out of her house.",,"12,500,000"
3,1,18,The Note,Tom Cherones,Larry David,18-Sep-91,21.7,8.1,Physical therapy proves painful for Jerry when his small talk with the therapist leads to a misunderstanding; Jerry uses a dentist note to cover his therapy.,,"21,700,000"
3,2,19,The Truth,David Steinberg,Elaine Pope,25-Sep-91,16.7,7.7,A bad breakup between George and his girlfriend leads to tax troubles for Jerry.,,"16,700,000"
3,3,20,The Pen,Tom Cherones,Larry David,2-Oct-91,15.1,8.1,"Jerry and Elaine travel to Florida for a dinner in honor of his father. Jerry gets into an argument with a neighbor of his parents over an ""astronaut pen.""",,"15,100,000"
3,4,21,The Dog,Tom Cherones,Larry David,9-Oct-91,17.2,7.3,Jerry is forced to care for the disobedient dog of a man he met on a plane.,,"17,200,000"
3,5,22,The Library,Joshua White,Larry Charles,16-Oct-91,16.4,8.5,"The library asks Jerry about a book he checked out in 1971 and never returned, so Jerry looks up an old girlfriend for his defense against a library cop.",,"16,400,000"
3,6,23,The Parking Garage,Tom Cherones,Larry David,30-Oct-91,17,8.7,The four get stuck in a parking garage for hours when they forget where they parked.,,"17,000,000"
3,7,24,The Cafe,Tom Cherones,Tom Leopold,6-Nov-91,16.4,8.4,"Jerry tries to help a new immigrant restaurant owner across the street from him. George, afraid of embarrassment, asks Elaine to take an IQ test for him.",,"16,400,000"
3,8,25,The Tape,David Steinberg,Larry David,13-Nov-91,15.8,8.6,George orders hair growing cream from China. Jerry is mesmerized by a dirty message left on a tape recorder from his last performance. George becomes infatuated with Elaine.,,"15,800,000"
3,8,25,The Tape,David Steinberg,Bob Shaw,13-Nov-91,15.8,8.6,George orders hair growing cream from China. Jerry is mesmerized by a dirty message left on a tape recorder from his last performance. George becomes infatuated with Elaine.,,"15,800,000"
3,8,25,The Tape,David Steinberg,Don McEnery,13-Nov-91,15.8,8.6,George orders hair growing cream from China. Jerry is mesmerized by a dirty message left on a tape recorder from his last performance. George becomes infatuated with Elaine.,,"15,800,000"
3,9,26,The Nose Job,Tom Cherones,Peter Mehlman,20-Nov-91,16.3,7.9,"Jerry dates a vacuous actress and struggles with overcoming his sexual desire for her. George dates a woman with a large nose, who decides to get a nose job after a careless comment from Kramer.",,"16,300,000"
3,10,27,The Stranded,Tom Cherones,Larry David,27-Nov-91,18.6,7.3,"Jerry and Elaine join George for a special party, where they send signals to each other to get out of bad party conversations; George had an office romance.",,"18,600,000"
3,10,27,The Stranded,Tom Cherones,Jerry Seinfeld,27-Nov-91,18.6,7.3,"Jerry and Elaine join George for a special party, where they send signals to each other to get out of bad party conversations; George had an office romance.",,"18,600,000"
3,10,27,The Stranded,Tom Cherones,Matt Goldman,27-Nov-91,18.6,7.3,"Jerry and Elaine join George for a special party, where they send signals to each other to get out of bad party conversations; George had an office romance.",,"18,600,000"
3,11,28,The Alternate Side,Tom Cherones,Larry David,4-Dec-91,18,8.1,Jerry's car is stolen. Elaine dates an older man. Kramer gets a small role in a Woody Allen movie filmed on his and Jerry's block. George must deal with the commotion of the movie filming as he gets a job parking cars on the block.,,"18,000,000"
3,11,28,The Alternate Side,Tom Cherones,Bill Masters,4-Dec-91,18,8.1,Jerry's car is stolen. Elaine dates an older man. Kramer gets a small role in a Woody Allen movie filmed on his and Jerry's block. George must deal with the commotion of the movie filming as he gets a job parking cars on the block.,,"18,000,000"
3,12,29,The Red Dot,Tom Cherones,Larry David,11-Dec-91,17.9,8.2,George gets a job at Elaine's office and gets involved with the cleaning woman. Elaine's boyfriend is a recovering alcoholic who falls off the wagon because of Jerry's carelessness. George buys Elaine a marked-down cashmere sweater.,,"17,900,000"
3,13,30,The Subway,Tom Cherones,Larry Charles,8-Jan-92,18.7,8.6,Everyone has an uncommon experience while going their separate ways on the subway; Kramer overheard a hot tip on a horse on his way to pay a traffic violation.,,"18,700,000"
3,14,31,The Pez Dispenser,Tom Cherones,Larry David,15-Jan-92,19.2,8.2,Jerry's Pez dispenser makes Elaine laugh during George's girlfriend's piano recital and puts their relationship in jeopardy; Kramer joins the Polar Bear Club.,,"19,200,000"
3,15,32,The Suicide,Tom Cherones,Tom Leopold,29-Jan-92,16.9,7.4,"After a suicide attempt by Jerry's neighbor lands him in a coma, Jerry begins a relationship with his girlfriend. George visits a psychic who predicts trouble on his upcoming trip. Elaine agonizes over having to fast before surgery.",,"16,900,000"
3,16,33,The Fix Up,Tom Cherones,Elaine Pope,5-Feb-92,18.5,8.3,"Against their better judgment, Jerry and Elaine decide to play matchmaker for the jobless, dateless and possibly hopeless George, setting him up with a single friend of Elaine's.",,"18,500,000"
3,16,33,The Fix Up,Tom Cherones,Larry Charles,5-Feb-92,18.5,8.3,"Against their better judgment, Jerry and Elaine decide to play matchmaker for the jobless, dateless and possibly hopeless George, setting him up with a single friend of Elaine's.",,"18,500,000"
3,17,34,The Boyfriend,Tom Cherones,Larry David,12-Feb-92,17,8.6,"Elaine and Keith are hitting it off until he pulls out a cigarette; Keith wants Jerry to help him move, leading Jerry along with Elaine to breakup with Keith.",,"17,000,000"
3,17,34,The Boyfriend,Tom Cherones,Larry Levin,12-Feb-92,17,8.6,"Elaine and Keith are hitting it off until he pulls out a cigarette; Keith wants Jerry to help him move, leading Jerry along with Elaine to breakup with Keith.",,"17,000,000"
3,18,35,The New Friend,Tom Cherones,Larry David,26-Jul-95,17,7.1,"Jerry, Kramer and Neuman act out a parody of the JFK assassination via a spitting incident as they reminisce about the loss of a Mets game in past. They call it the magic loogie.",,"17,000,000"
3,18,35,The New Friend,Tom Cherones,Larry Levin,26-Jul-95,17,7.1,"Jerry, Kramer and Neuman act out a parody of the JFK assassination via a spitting incident as they reminisce about the loss of a Mets game in past. They call it the magic loogie.",,"17,000,000"
3,19,36,The Limo,Tom Cherones,Marc Jaffe ,26-Feb-92,19.5,8.9,"Jerry and George take a limo from a passenger that Jerry knows never made it on the plane, but their false identities land them in hot water.",,"19,500,000"
3,19,36,The Limo,Tom Cherones,Larry Charles,26-Feb-92,19.5,8.9,"Jerry and George take a limo from a passenger that Jerry knows never made it on the plane, but their false identities land them in hot water.",,"19,500,000"
3,20,37,The Good Samaritan,Jason Alexander,Peter Mehlman,4-Mar-92,16.1,8,Jerry trails a hit-and-run driver but is attracted to her and begins dating her; he later learns her victim was a woman he's had a crush on for a long time. Kramer begins having seizures whenever he hears Mary Hart's voice.,,"16,100,000"
3,21,38,The Letter,Tom Cherones,Larry David,25-Mar-92,22.3,7.9,"Jerry learns that his new artist friend, from whom George has been forced to buy a painting, plagiarized a letter to keep him from breaking up with her. Elaine refuses to remove her Baltimore Orioles cap during a New York Yankees game.",,"22,300,000"
3,22,39,The Parking Space,Tom Cherones,Larry David,22-Apr-92,17.8,8.1,"Coming from an outing to a flea market in New Jersey, Elaine and George damage Jerry's car when George drives over a large pothole. When they get to his apartment they conveniently find a parking space right in front of Jerry's building. As George tries to back in however, someone tries to take the spot by driving in nose first. With neither car able to park, it leads to an all day argument. Elaine meanwhile has to come up with a story about the damage to the car.",,"17,800,000"
3,22,39,The Parking Space,Tom Cherones,Greg Daniels,22-Apr-92,17.8,8.1,"Coming from an outing to a flea market in New Jersey, Elaine and George damage Jerry's car when George drives over a large pothole. When they get to his apartment they conveniently find a parking space right in front of Jerry's building. As George tries to back in however, someone tries to take the spot by driving in nose first. With neither car able to park, it leads to an all day argument. Elaine meanwhile has to come up with a story about the damage to the car.",,"17,800,000"
3,23,40,The Keys,Tom Cherones,Larry Charles,6-May-92,16.4,8.2,"Jerry is fed up with Kramer's coming into his apartment any time he feels like it and asks him to return his spare set of keys. Kramer begrudgingly complies but then lets it be known that he's leaving for California. As for the others, the one key swap leads to multiple exchanges on pretty well everyone's part. When Jerry forgets his keys, he gets George to let him into Elaine's apartment so he can get his spare set. What they find interests them.",,"16,400,000"
4,1,41,The Trip: Part 1,Tom Cherones,Larry Charles,12-Aug-92,16.3,8.2,"When Jerry is asked to appear on The Tonight Show in Los Angeles, George accompanies him to look for Kramer.",,"16,300,000"
4,2,42,The Trip: Part 2,Tom Cherones,Larry Charles,19-Aug-92,15.1,8.2,"Kramer is arrested when he is mistaken for a serial killer. After he is exonerated, Jerry, George, and he return to New York.",,"15,100,000"
4,3,43,The Pitch,Tom Cherones,Larry David,16-Sep-92,17.6,8.4,"NBC executives ask Jerry to come up with an idea for a TV series. George decides he can be a sitcom writer and comes up with ""nothing."" Kramer trades a radar detector for a helmet, and later Newman receives a speeding ticket.",,"17,600,000"
4,4,44,The Ticket,Tom Cherones,Larry David,16-Sep-92,17.6,8.1,Newman uses Kramer as his witness when the former refuses to pay for a speeding ticket.,,"17,600,000"
4,5,45,The Wallet,Tom Cherones,Larry David,23-Sep-92,17.6,8.1,Jerry is asked to explain to his parents why he does not wear the watch they gave him. Morty Seinfeld thinks his wallet has been stolen from him at his doctor's appointment.,,"17,600,000"
4,6,46,The Watch,Tom Cherones,Larry David,30-Sep-92,15.2,8,"Jerry tries to buy his watch back from Uncle Leo, who found it in the garbage, having been thrown there by Jerry. George tries to resurrect the fledgling NBC deal, while Elaine plans a break up from her psychotherapist with Kramer's help.",,"15,200,000"
4,7,47,The Bubble Boy,Tom Cherones,Larry David,7-Oct-92,17.1,8.6,"On their way to the family cabin, George and Susan visit a boy who lives in a bubble; Kramer and Naomi start a fire that ends up burning down the cabin.",,"17,100,000"
4,7,47,The Bubble Boy,Tom Cherones,Larry Charles,7-Oct-92,17.1,8.6,"On their way to the family cabin, George and Susan visit a boy who lives in a bubble; Kramer and Naomi start a fire that ends up burning down the cabin.",,"17,100,000"
4,8,48,The Cheever Letters,Tom Cherones,Larry David,28-Oct-92,15.1,8.3,Jerry offends Elaine's assistant. Kramer makes a contact for Cuban cigars. A box of letters from John Cheever is all that remains after Susan's father's cabin burns down.,,"15,100,000"
4,8,48,The Cheever Letters,Tom Cherones,Elaine Pope,28-Oct-92,15.1,8.3,Jerry offends Elaine's assistant. Kramer makes a contact for Cuban cigars. A box of letters from John Cheever is all that remains after Susan's father's cabin burns down.,,"15,100,000"
4,8,48,The Cheever Letters,Tom Cherones,Tom Leopold ,28-Oct-92,15.1,8.3,Jerry offends Elaine's assistant. Kramer makes a contact for Cuban cigars. A box of letters from John Cheever is all that remains after Susan's father's cabin burns down.,,"15,100,000"
4,8,48,The Cheever Letters,Tom Cherones,Larry David,28-Oct-92,15.1,8.3,Jerry offends Elaine's assistant. Kramer makes a contact for Cuban cigars. A box of letters from John Cheever is all that remains after Susan's father's cabin burns down.,,"15,100,000"
4,9,49,The Opera,Tom Cherones,Larry Charles,4-Nov-92,16.7,7.9,"Elaine unknowingly is dating Crazy Joe Davola, who has just left a threatening message on Jerry's recorder.",,"16,700,000"
4,10,50,The Virgin,Tom Cherones,Peter Mehlman,11-Nov-92,16.2,8,Jerry finds out that the girl he likes is still a virgin; George wants to end his relationship with Susan to exploit his writing profession as a pick-up line.,,"16,200,000"
4,10,50,The Virgin,Tom Cherones,Peter Farrelly,11-Nov-92,16.2,8,Jerry finds out that the girl he likes is still a virgin; George wants to end his relationship with Susan to exploit his writing profession as a pick-up line.,,"16,200,000"
4,10,50,The Virgin,Tom Cherones,Bob Farrelly ,11-Nov-92,16.2,8,Jerry finds out that the girl he likes is still a virgin; George wants to end his relationship with Susan to exploit his writing profession as a pick-up line.,,"16,200,000"
4,10,50,The Virgin,Tom Cherones,Peter Mehlman,11-Nov-92,16.2,8,Jerry finds out that the girl he likes is still a virgin; George wants to end his relationship with Susan to exploit his writing profession as a pick-up line.,,"16,200,000"
4,11,51,The Contest,Tom Cherones,Larry David,18-Nov-92,18.5,9.5,George's mother throws her back out when she falls down after catching George performing a personal act; the gang partakes in a contest of self-denial.,,"18,500,000"
4,12,52,The Airport,Tom Cherones,Larry Charles,25-Nov-92,14.5,8.7,Jerry and Elaine fly back to New York. Jerry travels on first class while Elaine on coach. George and Kramer run into trouble while trying to arrive on time to pick up Jerry and Elaine at the airport.,,"14,500,000"
4,13,53,The Pick,Tom Cherones,Larry David,16-Dec-92,16.2,8.4,George has decided he's made a terrible mistake in breaking up with Susan. He moans and groans and is generally driving everybody crazy. Against everyone's advice he decides to tell her he made a mistake . No sooner are they back together than he decides he's the one who made the mistake. Elaine decides to put her picture on her Christmas cards and Kramer agrees to be the photographer. Only problem is that she exposes just a little too much of herself. Jerry meanwhile is dating the model he recently met on a flight and things seem to be going nicely....until she sees ...,,"16,200,000"
4,13,53,The Pick,Tom Cherones,Marc Jaffe ,16-Dec-92,16.2,8.4,George has decided he's made a terrible mistake in breaking up with Susan. He moans and groans and is generally driving everybody crazy. Against everyone's advice he decides to tell her he made a mistake . No sooner are they back together than he decides he's the one who made the mistake. Elaine decides to put her picture on her Christmas cards and Kramer agrees to be the photographer. Only problem is that she exposes just a little too much of herself. Jerry meanwhile is dating the model he recently met on a flight and things seem to be going nicely....until she sees ...,,"16,200,000"
4,13,53,The Pick,Tom Cherones,Larry David,16-Dec-92,16.2,8.4,George has decided he's made a terrible mistake in breaking up with Susan. He moans and groans and is generally driving everybody crazy. Against everyone's advice he decides to tell her he made a mistake . No sooner are they back together than he decides he's the one who made the mistake. Elaine decides to put her picture on her Christmas cards and Kramer agrees to be the photographer. Only problem is that she exposes just a little too much of herself. Jerry meanwhile is dating the model he recently met on a flight and things seem to be going nicely....until she sees ...,,"16,200,000"
4,14,54,The Movie,Tom Cherones,Steve Skrovan,6-Jan-93,17.6,8,"Jerry does a set at a comedy club, then goes to meet George, Elaine, and Kramer afterward to see a screening of Checkmate. However, a simple miscommunication causes the four to keep missing each other at two different theaters.",,"17,600,000"
4,14,54,The Movie,Tom Cherones,Bill Masters,6-Jan-93,17.6,8,"Jerry does a set at a comedy club, then goes to meet George, Elaine, and Kramer afterward to see a screening of Checkmate. However, a simple miscommunication causes the four to keep missing each other at two different theaters.",,"17,600,000"
4,14,54,The Movie,Tom Cherones,Jon Hayman,6-Jan-93,17.6,8,"Jerry does a set at a comedy club, then goes to meet George, Elaine, and Kramer afterward to see a screening of Checkmate. However, a simple miscommunication causes the four to keep missing each other at two different theaters.",,"17,600,000"
4,15,55,The Visa,Tom Cherones,Peter Mehlman,27-Jan-93,11.5,8,"Jerry returns from a two week tour to find that his old friend Babu, whom Jerry drove into bankruptcy by suggesting he change the menu in his restaurant, is working at the café. He's also living down the hall from Jerry, who is shocked to find that Babu is arrested for overstaying his visa. Turns out his visa application got mixed in with Jerry's mail. George meanwhile asks an attractive lawyer, Cheryl, to go out with him. She laughs at everything he says and he tells Jerry to butt out and not be funny. When they hear that Cheryl does immigration law, they ask her to ...",,"11,500,000"
4,16,56,The Shoes,Tom Cherones,Larry David,4-Feb-93,26.9,8,"Elaine can't seem to figure out why her shoes are a subject of conversation. Jerry and George pitch their pilot to NBC, but the deal is nearly jinxed when George takes a peek at the cleavage of the NBC president's daughter.",,"26,900,000"
4,16,56,The Shoes,Tom Cherones,Jerry Seinfeld,4-Feb-93,26.9,8,"Elaine can't seem to figure out why her shoes are a subject of conversation. Jerry and George pitch their pilot to NBC, but the deal is nearly jinxed when George takes a peek at the cleavage of the NBC president's daughter.",,"26,900,000"
4,17,57,The Outing,Tom Cherones,Larry Charles,11-Feb-93,28,9.4,A prank by Elaine leads a newspaper journalist to think that Jerry and George are gay.,,"28,000,000"
4,18,58,The Old Man,Tom Cherones,Bruce Kirschbaum ,18-Feb-93,22.7,7.8,"Elaine gets the gang to volunteer visiting the elderly, each ""adopting"" an old person. She gets freaked out by hers, George gets fired by his guy, and Jerry loses his. Kramer and Newman scheme to sell records to a vintage music store and steal the records from Jerry's old guy.",,"22,700,000"
4,18,58,The Old Man,Tom Cherones,Larry Charles,18-Feb-93,22.7,7.8,"Elaine gets the gang to volunteer visiting the elderly, each ""adopting"" an old person. She gets freaked out by hers, George gets fired by his guy, and Jerry loses his. Kramer and Newman scheme to sell records to a vintage music store and steal the records from Jerry's old guy.",,"22,700,000"
4,19,59,The Implant,Tom Cherones,Peter Mehlman,25-Feb-93,27.4,8.5,"Elaine is adamant that the woman Jerry likes has implants. But when Elaine meets the woman in the sauna and trips and lands on her breasts, she isn't sure if they are implants after all...",,"27,400,000"
4,20,60,The Junior Mint,Tom Cherones,Andy Robin,17-Mar-93,26.4,8.6,"Elaine decides to visit her former boyfriend, who is in the hospital for a serious operation; Kramer and Jerry have an accident with a Junior Mint; Jerry had a date with a woman whose name rhymes with a female body part.",,"26,400,000"
4,21,61,The Smelly Car,Tom Cherones,Larry David,15-Apr-93,25,8.3,"After dinner, Jerry gets his car back from the valet. He and Elaine get in the car and realize that the valet has really bad B.O.. Jerry goes to great lengths to get the smell out of his car while Elaine goes to great lengths to get the smell out of her hair. Jerry soon realizes that the smell isn't just a mere odor, but an entity unto itself, and finally decides that he has to get rid of his car. Meanwhile, George gets reacquainted with Susan and discovers that he drove her to lesbianism, and Kramer dates Susan's girlfriend.",,"25,000,000"
4,21,61,The Smelly Car,Tom Cherones,Peter Mehlman,15-Apr-93,25,8.3,"After dinner, Jerry gets his car back from the valet. He and Elaine get in the car and realize that the valet has really bad B.O.. Jerry goes to great lengths to get the smell out of his car while Elaine goes to great lengths to get the smell out of her hair. Jerry soon realizes that the smell isn't just a mere odor, but an entity unto itself, and finally decides that he has to get rid of his car. Meanwhile, George gets reacquainted with Susan and discovers that he drove her to lesbianism, and Kramer dates Susan's girlfriend.",,"25,000,000"
4,22,62,The Handicap Spot,Tom Cherones,Larry David,13-May-93,27.6,8.2,"At Kramer's insistence, George parks his Dad's car in a handicap spot. After a woman is injured because of it, George becomes his Dad's butler while Kramer tries to help the woman.",,"27,600,000"
4,23,63,The Pilot 1,Tom Cherones,Larry David,20-May-93,32.8,8.5,"""Jerry,"" the television pilot, gets cast and finally airs. Elaine tries to discourage Dalrymple's romantic pursuit.",,"32,800,000"
4,24,64,The Pilot 2,Tom Cherones,Larry David,20-May-93,32.8,8.5,"""Jerry,"" the television pilot, gets cast and finally airs. Elaine tries to discourage Dalrymple's romantic pursuit.",,"32,800,000"
5,1,65,The Mango,Tom Cherones,Lawrence H. Levy ,16-Sep-93,28.2,8.4,Elaine makes a startling confession.,,"28,200,000"
5,1,65,The Mango,Tom Cherones,Lawrence H. Levy,16-Sep-93,28.2,8.4,Elaine makes a startling confession.,,"28,200,000"
5,1,65,The Mango,Tom Cherones,Larry David,16-Sep-93,28.2,8.4,Elaine makes a startling confession.,,"28,200,000"
5,2,66,The Puffy Shirt,Tom Cherones,Larry David,23-Sep-93,29.5,8.8,Kramer and his soft-spoken friend Leslie start a new line of clothing and Jerry accidentally agrees to wear it on the Today show.,,"29,500,000"
5,3,67,The Glasses,Tom Cherones,Tom Gammill,30-Sep-93,28.7,8.3,George loses his glasses at the health club.,,"28,700,000"
5,3,67,The Glasses,Tom Cherones,Max Pross,30-Sep-93,28.7,8.3,George loses his glasses at the health club.,,"28,700,000"
5,4,68,The Sniffing Accountant,Tom Cherones,Larry David,7-Oct-93,28.4,8,The gang gets suspicious of their accountant.,,"28,400,000"
5,4,68,The Sniffing Accountant,Tom Cherones,Jerry Seinfeld,7-Oct-93,28.4,8,The gang gets suspicious of their accountant.,,"28,400,000"
5,5,69,The Bris,Tom Cherones,Larry Charles,14-Oct-93,28.7,7.9,Elaine and Jerry are nervous about the religious duties they must do when they agree to become godparents to a couple's newborn; George nabs great parking spot.,,"28,700,000"
5,6,70,The Lip Reader,Tom Cherones,Carol Leifer,28-Oct-93,31,8.3,George decides to use Jerry's girlfriend to spy on his friends by having her read their lips. Kramer claims he can also read lips and tries to prove it.,,"31,000,000"
5,7,71,The Non-Fat Yogurt,Tom Cherones,Larry David,4-Nov-93,31.1,8.3,Kramer invests in a new non-fat yogurt store.,,"31,100,000"
5,8,72,The Barber,Tom Cherones,Andy Robin,11-Nov-93,29.7,8.4,Jerry regrets giving his longtime barber the heave-ho after he gets a ridiculous-looking haircut. George gets a job interview but the boss leaves him with a very cryptic ending. Kramer begs Elaine to let him take part in her charity bachelor auction.,,"29,700,000"
5,9,73,The Masseuse,Tom Cherones,Peter Mehlman,18-Nov-93,27.7,7.7,"Jerry gets mad when he dates a masseuse. Kramer and George get massages while Jerry doesn't. Meanwhile, Elaine's new boyfriend is Joel Rifkin, an innocent man who shares the same name as one of New York's most notorious serial killers.",,"27,700,000"
5,10,74,The Cigar Store Indian,Tom Cherones,Tom Gammill,9-Dec-93,29.6,8.1,"Jerry is deemed a racist when he purchases a Native American statue for Elaine. Kramer tries to get Elaine's company to publish his coffee table book. Elaine runs into a really creepy man on the subway who steals Frank's TV Guide and follows her to the Costanza's house. Meanwhile, George gets grounded when he has sex with a woman in his parents' bed.",,"29,600,000"
5,10,74,The Cigar Store Indian,Tom Cherones,Max Pross,9-Dec-93,29.6,8.1,"Jerry is deemed a racist when he purchases a Native American statue for Elaine. Kramer tries to get Elaine's company to publish his coffee table book. Elaine runs into a really creepy man on the subway who steals Frank's TV Guide and follows her to the Costanza's house. Meanwhile, George gets grounded when he has sex with a woman in his parents' bed.",,"29,600,000"
5,11,75,The Conversion,Tom Cherones,Bruce Kirschbaum,16-Dec-93,28.3,8.1,George changes his religion to Latvian Orthodox to keep his girlfriend happy; Jerry becomes curious as to why his girlfriend needs fungus cream.,,"28,300,000"
5,12,76,The Stall,Tom Cherones,Larry Charles,6-Jan-94,35,8.4,"At a movie theater's restroom, Elaine, realizing she doesn't have any toilet paper left, asks the woman in the next stall (Jami Gertz) if she has any toilet paper to spare, but the woman refuses, claiming that she ""can't spare a square"". Elaine pleads with the woman, but she leaves, ignoring Elaine. The woman returns to her seat, and is revealed as Jerry's girlfriend, Jane. Elaine is shown returning to her seat, with her new boyfriend Tony (played by Dan Cortese). The two women tell their dates about what had just happened. At Jerry's apartment, Kramer walks in, ...",,"35,000,000"
5,13,77,The Dinner Party,Tom Cherones,Larry David,3-Feb-94,33,8.1,"En route to a dinner party, Jerry and Elaine stop off at a bakery and get held up when the bakery runs out of what they want to purchase. Meanwhile, George and Kramer, en route to said dinner party, stop off at a liquor store to buy a bottle of wine and have a hard time picking one out.",,"33,000,000"
5,14,78,The Marine Biologist,Tom Cherones,Ron Hauge,10-Feb-94,35,9.1,"George starts dating a college friend who, thanks to Jerry, thinks George is now a marine biologist. Elaine's electronic organizer injures a person after being launched from a limo by a Russian novelist. Kramer decides to golf on the beach.",,"35,000,000"
5,14,78,The Marine Biologist,Tom Cherones,Charlie Rubin,10-Feb-94,35,9.1,"George starts dating a college friend who, thanks to Jerry, thinks George is now a marine biologist. Elaine's electronic organizer injures a person after being launched from a limo by a Russian novelist. Kramer decides to golf on the beach.",,"35,000,000"
5,15,79,The Pie,Tom Cherones,Tom Gammill,17-Feb-94,25.4,8.4,"While shopping for a new suit for a job interview, George and the others stumble upon a mannequin which scarily resembles Elaine. Meanwhile Jerry tries to figure out why his girlfriend won't try his apple pie at Monks.",,"25,400,000"
5,15,79,The Pie,Tom Cherones,Max Pross,17-Feb-94,25.4,8.4,"While shopping for a new suit for a job interview, George and the others stumble upon a mannequin which scarily resembles Elaine. Meanwhile Jerry tries to figure out why his girlfriend won't try his apple pie at Monks.",,"25,400,000"
5,16,80,The Stand-In,Tom Cherones,Larry David,24-Feb-94,25.4,7.4,"Kramer gets a job with Mickey as a TV stand-in. Jerry sets Elaine up with a guy who he says would be perfect for her. At the end of their first date he takes ""it"" out.",,"25,400,000"
5,17,81,The Wife,Tom Cherones,Peter Mehlman,17-Mar-94,30.7,8,"Jerry gets a permanent discount at his local dry cleaners after returning a locket he found in a jacket pocket. His new girlfriend Meryl also claims the discount claiming to be Jerry's wife. It all gets out of hand when Jerry's Uncle Leo hears he's married. Elaine thinks an airline pilot who goes to the same health club but her interest wanes quickly when he wipes the top of her water bottle before drinking from it. George is in trouble when the pilot sees him urinating in the shower at the same club. Kramer has had trouble sleeping at home but not, unfortunately at ...",,"30,700,000"
5,18,82,The Raincoats 1,Tom Cherones,Tom Gammill,28-Apr-94,29.6,8.3,"Jerry and his latest girlfriend finally get alone time when they go on a date to see ""Schindler's List"", where Newman oversees them making out.",,"29,600,000"
5,18,82,The Raincoats 1,Tom Cherones,Max Pross,28-Apr-94,29.6,8.3,"Jerry and his latest girlfriend finally get alone time when they go on a date to see ""Schindler's List"", where Newman oversees them making out.",,"29,600,000"
5,18,82,The Raincoats 1,Tom Cherones,Larry David,28-Apr-94,29.6,8.3,"Jerry and his latest girlfriend finally get alone time when they go on a date to see ""Schindler's List"", where Newman oversees them making out.",,"29,600,000"
5,18,82,The Raincoats 1,Tom Cherones,Jerry Seinfeld,28-Apr-94,29.6,8.3,"Jerry and his latest girlfriend finally get alone time when they go on a date to see ""Schindler's List"", where Newman oversees them making out.",,"29,600,000"
5,19,83,The Raincoats 2,Tom Cherones,Tom Gammill,28-Apr-94,29.6,8.3,"Jerry and his latest girlfriend finally get alone time when they go on a date to see ""Schindler's List"", where Newman oversees them making out.",,"29,600,000"
5,19,83,The Raincoats 2,Tom Cherones,Max Pross,28-Apr-94,29.6,8.3,"Jerry and his latest girlfriend finally get alone time when they go on a date to see ""Schindler's List"", where Newman oversees them making out.",,"29,600,000"
5,19,83,The Raincoats 2,Tom Cherones,Larry David,28-Apr-94,29.6,8.3,"Jerry and his latest girlfriend finally get alone time when they go on a date to see ""Schindler's List"", where Newman oversees them making out.",,"29,600,000"
5,19,83,The Raincoats 2,Tom Cherones,Jerry Seinfeld,28-Apr-94,29.6,8.3,"Jerry and his latest girlfriend finally get alone time when they go on a date to see ""Schindler's List"", where Newman oversees them making out.",,"29,600,000"
5,20,84,The Fire,Tom Cherones,Larry Charles,5-May-94,27.6,8.5,"George dates a woman who has a son. She invites him to her son's birthday party. While at the party, a fire breaks out in the kitchen. George screams ""FIRE!!!"" and knocks down the kids and the old lady as he cowardly tries to make his escape. The clown (not Bozo) puts out the fire with his big shoe. Meanwhile, over at Pendant Publishing, Elaine learns that she's up for a very nice promotion. But her main competition, Toby, is working with Kramer on his coffee table book. The three head over to the comedy club where Jerry is doing an important set where a writer from ...",,"27,600,000"
5,21,85,The Hamptons,Tom Cherones,Peter Mehlman,12-May-94,24.5,8.8,The gang goes to the Hamptons for the weekend to visit Elaine's friends' new baby.,,"24,500,000"
5,21,85,The Hamptons,Tom Cherones,Carol Leifer,12-May-94,24.5,8.8,The gang goes to the Hamptons for the weekend to visit Elaine's friends' new baby.,,"24,500,000"
5,22,86,The Opposite,Tom Cherones,Andy Cowan,19-May-94,30.1,9.6,George decides to turn his life around by doing the exact opposite of what he would usually do. Elaine is having a lot of bad luck. Jerry keeps breaking even. Kramer gets the coffee table book published.,,"30,100,000"
5,22,86,The Opposite,Tom Cherones,Larry David,19-May-94,30.1,9.6,George decides to turn his life around by doing the exact opposite of what he would usually do. Elaine is having a lot of bad luck. Jerry keeps breaking even. Kramer gets the coffee table book published.,,"30,100,000"
5,22,86,The Opposite,Tom Cherones,Jerry Seinfeld,19-May-94,30.1,9.6,George decides to turn his life around by doing the exact opposite of what he would usually do. Elaine is having a lot of bad luck. Jerry keeps breaking even. Kramer gets the coffee table book published.,,"30,100,000"
6,1,87,The Chaperone,Andy Ackerman,Larry David,22-Sep-94,32.8,8.1,Jerry dates a Miss America contestant. Kramer tags along.,,"32,800,000"
6,1,87,The Chaperone,Andy Ackerman,Bill Masters,22-Sep-94,32.8,8.1,Jerry dates a Miss America contestant. Kramer tags along.,,"32,800,000"
6,1,87,The Chaperone,Andy Ackerman,Bob Shaw,22-Sep-94,32.8,8.1,Jerry dates a Miss America contestant. Kramer tags along.,,"32,800,000"
6,2,88,The Big Salad,Andy Ackerman,Larry David,29-Sep-94,32.4,8.1,"Kramer thinks that a simple penalty stroke may have driven his golf partner, Steve Gennison, to murder a dry cleaner. Jerry is stunned to learn that his girlfriend not only went out with, but was dumped by Newman. George thinks Elaine gave his girlfriend an incorrect thank you when it was actually George who paid for Elaine's lunch. Elaine flirts with a stationery store employee and thinks that she may have sent him the wrong message.",,"32,400,000"
6,3,89,The Pledge Drive,Andy Ackerman,Tom Gammill,6-Oct-94,29.8,8.3,"Kramer finds Jerry's old birthday checks from his grandmother and insists he deposits them, which puts Nana in unexpected debt. Elaine accidentally tells the high talker a secret. Mr Pitt eats a Snickers bar with utensils.",,"29,800,000"
6,3,89,The Pledge Drive,Andy Ackerman,Max Pross,6-Oct-94,29.8,8.3,"Kramer finds Jerry's old birthday checks from his grandmother and insists he deposits them, which puts Nana in unexpected debt. Elaine accidentally tells the high talker a secret. Mr Pitt eats a Snickers bar with utensils.",,"29,800,000"
6,4,90,The Chinese Woman,Andy Ackerman,Peter Mehlman,13-Oct-94,29.2,8.1,"George's telephone line crosses with that of a woman named Donna Chang, and everyone seeks her advice when she convinces them that she's Chinese. Jerry winds up dating her. Things get worse when Frank and Estelle announce a separation. Jerry and Elaine can't seem to figure out why Frank Costanza is having mysterious business dealings with a man in a cape.",,"29,200,000"
6,5,91,The Couch,Andy Ackerman,Larry David,27-Oct-94,28,7.8,Jerry's new couch is completely ruined when Elaine upsets a man with a bladder condition. Kramer decides to start up his own new pizza business. George joins a book club but instead of reading the book he watches the movie.,,"28,000,000"
6,6,92,The Gymnast,Andy Ackerman,Alec Berg,3-Nov-94,30.6,8,Jerry's excitement about dating a gymnast diminishes after mediocre sex; George's girlfriend's mom catches him eating out of the trash; Kramer passes a kidney stone.,,"30,600,000"
6,6,92,The Gymnast,Andy Ackerman,Jeff Schaffer,3-Nov-94,30.6,8,Jerry's excitement about dating a gymnast diminishes after mediocre sex; George's girlfriend's mom catches him eating out of the trash; Kramer passes a kidney stone.,,"30,600,000"
6,7,93,The Soup,Andy Ackerman,Fred Stoller,10-Nov-94,29.6,7.9,"Jerry accepts an Armani suit from Kenny Bania, provided that he will treat him to a meal; Elaine dates a bounder from England; Kramer decides to eat fresh.",,"29,600,000"
6,8,94,The Mom and Pop Store,Andy Ackerman,Tom Gammill,17-Nov-94,32.4,8.1,"George buys a convertible he thinks was once owned by Jon Voight. Kramer tries to save a small shoe-repair business. Elaine answers a radio quiz, enabling Mr. Pitt to participate in the Macy's Thanksgiving Day Parade. Meanwhile, Jerry tries to solve the mystery of whether or not he's invited to Tim Whatley's annual Pre-Thanksgiving party.",,"32,400,000"
6,8,94,The Mom and Pop Store,Andy Ackerman,Max Pross,17-Nov-94,32.4,8.1,"George buys a convertible he thinks was once owned by Jon Voight. Kramer tries to save a small shoe-repair business. Elaine answers a radio quiz, enabling Mr. Pitt to participate in the Macy's Thanksgiving Day Parade. Meanwhile, Jerry tries to solve the mystery of whether or not he's invited to Tim Whatley's annual Pre-Thanksgiving party.",,"32,400,000"
6,9,95,The Secretary,David Owen Trainor,Carol Leifer,8-Dec-94,29.7,8.2,"George gets a secretary, saying he will go for efficiency and smarts rather than beauty. He hires a librarian-esque woman, only to find himself falling in love with her.",,"29,700,000"
6,9,95,The Secretary,David Owen Trainor,Marjorie Gross,8-Dec-94,29.7,8.2,"George gets a secretary, saying he will go for efficiency and smarts rather than beauty. He hires a librarian-esque woman, only to find himself falling in love with her.",,"29,700,000"
6,10,96,The Race,Andy Ackerman,Tom Gammill,15-Dec-94,26.8,8.7,A grade school acquaintance puts pressure on Jerry to finally settle an old score in the form of a race; Elaine is blacklisted from a Chinese restaurant.,,"26,800,000"
6,10,96,The Race,Andy Ackerman,Max Pross,15-Dec-94,26.8,8.7,A grade school acquaintance puts pressure on Jerry to finally settle an old score in the form of a race; Elaine is blacklisted from a Chinese restaurant.,,"26,800,000"
6,10,96,The Race,Andy Ackerman,Larry David,15-Dec-94,26.8,8.7,A grade school acquaintance puts pressure on Jerry to finally settle an old score in the form of a race; Elaine is blacklisted from a Chinese restaurant.,,"26,800,000"
6,10,96,The Race,Andy Ackerman,Sam Kass ,15-Dec-94,26.8,8.7,A grade school acquaintance puts pressure on Jerry to finally settle an old score in the form of a race; Elaine is blacklisted from a Chinese restaurant.,,"26,800,000"
6,10,96,The Race,Andy Ackerman,Tom Gammill,15-Dec-94,26.8,8.7,A grade school acquaintance puts pressure on Jerry to finally settle an old score in the form of a race; Elaine is blacklisted from a Chinese restaurant.,,"26,800,000"
6,10,96,The Race,Andy Ackerman,Max Pross,15-Dec-94,26.8,8.7,A grade school acquaintance puts pressure on Jerry to finally settle an old score in the form of a race; Elaine is blacklisted from a Chinese restaurant.,,"26,800,000"
6,10,96,The Race,Andy Ackerman,Larry David,15-Dec-94,26.8,8.7,A grade school acquaintance puts pressure on Jerry to finally settle an old score in the form of a race; Elaine is blacklisted from a Chinese restaurant.,,"26,800,000"
6,11,97,The Switch,Andy Ackerman,Bruce Kirschbaum,5-Jan-95,36.6,8.8,Jerry wants to switch from dating a non-laughing woman to dating her roommate; Elaine has difficulty retrieving a tennis racket she loaned out; George enlists Kramer's mother to spy on his seemingly bulimic girlfriend.,,"36,600,000"
6,11,97,The Switch,Andy Ackerman,Sam Kass,5-Jan-95,36.6,8.8,Jerry wants to switch from dating a non-laughing woman to dating her roommate; Elaine has difficulty retrieving a tennis racket she loaned out; George enlists Kramer's mother to spy on his seemingly bulimic girlfriend.,,"36,600,000"
6,12,98,The Label Maker,Andy Ackerman,Alec Berg,19-Jan-95,36.2,8.4,Tim Whatley gives Jerry a label maker as a thank you for his Super Bowl tickets. George is uncomfortable with his girlfriend's male roommate. Kramer and Newman play a game of Risk.,,"36,200,000"
6,12,98,The Label Maker,Andy Ackerman,Jeff Schaffer,19-Jan-95,36.2,8.4,Tim Whatley gives Jerry a label maker as a thank you for his Super Bowl tickets. George is uncomfortable with his girlfriend's male roommate. Kramer and Newman play a game of Risk.,,"36,200,000"
6,13,99,The Scofflaw,Andy Ackerman,Peter Mehlman,26-Jan-95,33.4,7.9,"When George learns that their friend Gary never had cancer as he claimed, he promises to keep it a secret from Jerry. Of course George can keep a secret for about two seconds. Elaine gets all tied up in knots when she learns that someone said hi to her ex-boyfriend on her behalf. She goes out of her way to let him know otherwise, which seems to defeat the purpose of it all. Kramer has a run-in with the local beat cop who tells him there's someone in the neighborhood who has amassed parking tickets for years. Kramer figures out just who that is.",,"33,400,000"
6,14,100,Highlights of a Hundred 1,Andy Ackerman,Peter Mehlman,2-Feb-95,34,7.3,"For the series' 100th episode, Jerry Seinfeld hosts a one hour retrospective with clips from previous episodes: the idea for a show about nothing; the smelly car; the puffy shirt; the astronaut pen; Jerry's hair; George's lack of hair; Mulva; Jerry's virgin girlfriend; the Hernandez incident; the outing; the masters of their domain; the bubble boy - are only a few of the episodes included.",,"34,000,000"
6,15,101,Highlights of a Hundred 2,Andy Ackerman,Peter Mehlman,2-Feb-95,34,7.3,"For the series' 100th episode, Jerry Seinfeld hosts a one hour retrospective with clips from previous episodes: the idea for a show about nothing; the smelly car; the puffy shirt; the astronaut pen; Jerry's hair; George's lack of hair; Mulva; Jerry's virgin girlfriend; the Hernandez incident; the outing; the masters of their domain; the bubble boy - are only a few of the episodes included.",,"34,000,000"
6,16,102,The Beard,Andy Ackerman,Carol Leifer,9-Feb-95,32.9,8.1,Elaine tries to convert a gay man to heterosexuality; George is upset when his blind date turns out to be bald; Jerry braces for a lie detector test,,"32,900,000"
6,17,103,The Kiss Hello,Andy Ackerman,Larry David,16-Feb-95,33.4,8.3,"Kramer tries to create a Utopian society when he puts up pictures of all the residents of his and Jerry's building. Jerry doesn't mind until the women of the building want to be greeted with a kiss. After Jerry objects to kissing hello, he's vilified and nearly kicked out of the building. Jerry also has to settle some family issues when Nana remembers that Uncle Leo was supposed to give Jerry's mom some money 50 years ago and Uncle Leo puts Nana in a home to keep her quiet. Meanwhile, Elaine's friend who is a chiropractor skips out on George's appointment and goes ...",,"33,400,000"
6,17,103,The Kiss Hello,Andy Ackerman,Jerry Seinfeld,16-Feb-95,33.4,8.3,"Kramer tries to create a Utopian society when he puts up pictures of all the residents of his and Jerry's building. Jerry doesn't mind until the women of the building want to be greeted with a kiss. After Jerry objects to kissing hello, he's vilified and nearly kicked out of the building. Jerry also has to settle some family issues when Nana remembers that Uncle Leo was supposed to give Jerry's mom some money 50 years ago and Uncle Leo puts Nana in a home to keep her quiet. Meanwhile, Elaine's friend who is a chiropractor skips out on George's appointment and goes ...",,"33,400,000"
6,18,104,The Doorman,Andy Ackerman,Tom Gammill,23-Feb-95,33.4,8,Jerry is inconvenienced by a tenacious doorman at an apartment building; Kramer robs George on the street to put on a show for a group of German tourists.,,"33,400,000"
6,18,104,The Doorman,Andy Ackerman,Max Pross,23-Feb-95,33.4,8,Jerry is inconvenienced by a tenacious doorman at an apartment building; Kramer robs George on the street to put on a show for a group of German tourists.,,"33,400,000"
6,19,105,The Jimmy,Andy Ackerman,Gregg Kavet,16-Mar-95,31.1,8.7,Elaine dates a man whose habit of speaking in third person causes a wide array of confusion; George is blamed for the theft of Yankees' sports equipment.,,"31,100,000"
6,19,105,The Jimmy,Andy Ackerman,Andy Robin,16-Mar-95,31.1,8.7,Elaine dates a man whose habit of speaking in third person causes a wide array of confusion; George is blamed for the theft of Yankees' sports equipment.,,"31,100,000"
6,20,106,The Doodle,Andy Ackerman,Alec Berg,6-Apr-95,30.7,8.3,"George dates a girl from Elaine's art class and wonders whether or not her humorous caricature of him is a sign that she likes him or not. Thanks to Newman's fleas, Jerry's visiting parents are forced to stay in Elaine's luxury hotel room. Elaine gets a potential job offer but accidentally leaves the manuscript in Jerry's flea-infested apartment.",,"30,700,000"
6,20,106,The Doodle,Andy Ackerman,Jeff Schaffer,6-Apr-95,30.7,8.3,"George dates a girl from Elaine's art class and wonders whether or not her humorous caricature of him is a sign that she likes him or not. Thanks to Newman's fleas, Jerry's visiting parents are forced to stay in Elaine's luxury hotel room. Elaine gets a potential job offer but accidentally leaves the manuscript in Jerry's flea-infested apartment.",,"30,700,000"
6,21,107,The Fusilli Jerry,Andy Ackerman,Marjorie Gross,27-Apr-95,28.2,8.5,Frank has an unfortunate accident involving one of Kramer's pasta sculptures; Kramer gets the wrong license plates; Jerry becomes disturbed when he finds out that his mechanic used his personal sex move on Elaine.,,"28,200,000"
6,21,107,The Fusilli Jerry,Andy Ackerman,Jonathan Gross,27-Apr-95,28.2,8.5,Frank has an unfortunate accident involving one of Kramer's pasta sculptures; Kramer gets the wrong license plates; Jerry becomes disturbed when he finds out that his mechanic used his personal sex move on Elaine.,,"28,200,000"
6,21,107,The Fusilli Jerry,Andy Ackerman,Ron Hauge,27-Apr-95,28.2,8.5,Frank has an unfortunate accident involving one of Kramer's pasta sculptures; Kramer gets the wrong license plates; Jerry becomes disturbed when he finds out that his mechanic used his personal sex move on Elaine.,,"28,200,000"
6,21,107,The Fusilli Jerry,Andy Ackerman,Charlie Rubin ,27-Apr-95,28.2,8.5,Frank has an unfortunate accident involving one of Kramer's pasta sculptures; Kramer gets the wrong license plates; Jerry becomes disturbed when he finds out that his mechanic used his personal sex move on Elaine.,,"28,200,000"
6,21,107,The Fusilli Jerry,Andy Ackerman,Marjorie Gross,27-Apr-95,28.2,8.5,Frank has an unfortunate accident involving one of Kramer's pasta sculptures; Kramer gets the wrong license plates; Jerry becomes disturbed when he finds out that his mechanic used his personal sex move on Elaine.,,"28,200,000"
6,22,108,The Diplomat's Club,Andy Ackerman,Tom Gammill,4-May-95,28.9,8.1,Jerry's simple airport meeting turns into a nightmare thanks to his incompetent agent; Kramer gets into hot water when he gambled with a rich Texan.,,"28,900,000"
6,22,108,The Diplomat's Club,Andy Ackerman,Max Pross,4-May-95,28.9,8.1,Jerry's simple airport meeting turns into a nightmare thanks to his incompetent agent; Kramer gets into hot water when he gambled with a rich Texan.,,"28,900,000"
6,23,109,The Face Painter,Andy Ackerman,Larry David,11-May-95,26.5,8.6,"Jerry, Elaine, Kramer, and David Puddy go to two Stanley Cup playoff games; Kramer holds a grudge against a chimpanzee who hit him with a banana peel; George resolves to take the dramatic step of telling his girlfriend he loves her.",,"26,500,000"
6,23,109,The Face Painter,Andy Ackerman,Fred Stoller ,11-May-95,26.5,8.6,"Jerry, Elaine, Kramer, and David Puddy go to two Stanley Cup playoff games; Kramer holds a grudge against a chimpanzee who hit him with a banana peel; George resolves to take the dramatic step of telling his girlfriend he loves her.",,"26,500,000"
6,23,109,The Face Painter,Andy Ackerman,Larry David,11-May-95,26.5,8.6,"Jerry, Elaine, Kramer, and David Puddy go to two Stanley Cup playoff games; Kramer holds a grudge against a chimpanzee who hit him with a banana peel; George resolves to take the dramatic step of telling his girlfriend he loves her.",,"26,500,000"
6,24,110,The Understudy,Andy Ackerman,Marjorie Gross,18-May-95,29.8,7.8,"Jerry dates the ultra-sensitive understudy for Bette Midler in Rochelle, Rochelle: The Musical. When the Improv is scheduled to play Rochelle Rochelle in a softball game, George plows into catcher Bette Midler to score the winning run. Bette is injured because of the incident and is unable to perform in the Broadway premiere. Jerry, George, and the understudy are vilified for the incident, and Kramer goes out of his way to help Bette. Meanwhile, Elaine suspects that a local nail shop is making fun of her in Korean. She learns that George's dad Frank speaks Korean and ...",,"29,800,000"
6,24,110,The Understudy,Andy Ackerman,Carol Leifer,18-May-95,29.8,7.8,"Jerry dates the ultra-sensitive understudy for Bette Midler in Rochelle, Rochelle: The Musical. When the Improv is scheduled to play Rochelle Rochelle in a softball game, George plows into catcher Bette Midler to score the winning run. Bette is injured because of the incident and is unable to perform in the Broadway premiere. Jerry, George, and the understudy are vilified for the incident, and Kramer goes out of his way to help Bette. Meanwhile, Elaine suspects that a local nail shop is making fun of her in Korean. She learns that George's dad Frank speaks Korean and ...",,"29,800,000"
7,1,111,The Engagement,Andy Ackerman,Larry David,21-Sep-95,37.6,8.8,"While sitting in the coffee shop, Jerry and George resolve to grow up and take life more seriously. Jerry decides to call the woman he recently broke up with - because she shushed him. For his part, George has been thinking a lot about his former girlfriend Susan. After imagining the ideal life they could have together, he goes to her apartment and proposes. She accepts and George almost immediately begins to have second thoughts, especially after Jerry breaks up with his girlfriend a second time. Elaine meanwhile is having trouble with a neighbor's barking dog and ...",,"37,600,000"
7,2,112,The Postponement,Andy Ackerman,Larry David,28-Sep-95,34.5,8.3,George gets cold feet and tries everything he can to postpone the engagement; Elaine is jealous of George's engagement; Kramer spills hot coffee on himself.,,"34,500,000"
7,3,113,The Maestro,Andy Ackerman,Larry David,5-Oct-95,34.6,8.1,"Elaine's latest boyfriend likes to be known as ""The Maestro""; Kramer reaches an unsatisfactory settlement with the coffee company, much to his lawyer's chagrin.",,"34,600,000"
7,4,114,The Wink,Andy Ackerman,Tom Gammill,12-Oct-95,32.3,8.5,"Jerry squirts grapefruit into George's eye at breakfast, and for the rest of the day George is misinterpreted because everyone thinks he is winking at them.",,"32,300,000"
7,4,114,The Wink,Andy Ackerman,Max Pross,12-Oct-95,32.3,8.5,"Jerry squirts grapefruit into George's eye at breakfast, and for the rest of the day George is misinterpreted because everyone thinks he is winking at them.",,"32,300,000"
7,5,115,The Hot Tub,Andy Ackerman,Gregg Kavet,19-Oct-95,32.6,8.4,"Wilhelm thinks George is cracking under the pressure of working in the big leagues. So he has George entertain a group of visiting baseball officials from the Houston Astros, who are in New York to discuss inter-league play. George picks up a bad habit from them, who call everyone either a ""bastard"" or a ""son of a bitch"". Kramer buys a hot tub from his friend Lomez and installs it in his apartment. At the same time, Elaine is having a marathon runner from Trinidad And Tobago named Jean Paul Jean Paul stay with her as a house guest. Jean Paul was in the Olympics and ...",,"32,600,000"
7,5,115,The Hot Tub,Andy Ackerman,Andy Robin,19-Oct-95,32.6,8.4,"Wilhelm thinks George is cracking under the pressure of working in the big leagues. So he has George entertain a group of visiting baseball officials from the Houston Astros, who are in New York to discuss inter-league play. George picks up a bad habit from them, who call everyone either a ""bastard"" or a ""son of a bitch"". Kramer buys a hot tub from his friend Lomez and installs it in his apartment. At the same time, Elaine is having a marathon runner from Trinidad And Tobago named Jean Paul Jean Paul stay with her as a house guest. Jean Paul was in the Olympics and ...",,"32,600,000"
7,6,116,The Soup Nazi,Andy Ackerman,Spike Feresten,2-Nov-95,33.1,9.5,"A soup stand owner obsesses about his customers' ordering procedure, but his soup is so good that people line up down the block for it anyway.",,"33,100,000"
7,7,117,The Secret Code,Andy Ackerman,Alec Berg,9-Nov-95,33.9,8.6,"George refuses to give anyone his secret code (BOSCO). Kramer buys a police scanner. Jerry does a series of ads for Leapin' Larry's Appliance Store. Elaine has dinner with J. Peterman but after she and Jerry bail on the dinner, George is stuck to dine with Peterman. George spills his secret code to Peterman's dying mother and gets in trouble for it.",,"33,900,000"
7,7,117,The Secret Code,Andy Ackerman,Jeff Schaffer,9-Nov-95,33.9,8.6,"George refuses to give anyone his secret code (BOSCO). Kramer buys a police scanner. Jerry does a series of ads for Leapin' Larry's Appliance Store. Elaine has dinner with J. Peterman but after she and Jerry bail on the dinner, George is stuck to dine with Peterman. George spills his secret code to Peterman's dying mother and gets in trouble for it.",,"33,900,000"
7,8,118,The Pool Guy,Andy Ackerman,David Mandel,16-Nov-95,33.4,8.4,Jerry has a hard time telling the pool guy at his new health club that there isn't room for a 5th member of the group. George's worlds collide when Elaine starts hanging out with Susan. Kramer discovers that his phone number is one digit off from that of a popular movie-finding service and offers help to those that mistakenly call his number.,,"33,400,000"
7,9,119,The Sponge,Andy Ackerman,Peter Mehlman,7-Dec-95,32.3,8.1,"After learning that her prophylactic of choice is being discontinued, Elaine buys a case of Today sponges and scrutinizes her dates for their sponge-worthiness.",,"32,300,000"
7,10,120,The Gum,Andy Ackerman,Tom Gammill,14-Dec-95,31.4,8.4,"When Lloyd Braun comes back from the psychiatric hospital, Kramer takes him under his wing and convinces Jerry to buy gum from him and wear glasses that don't belong to him to prove that Lloyd isn't crazy. George tries to prove to his old neighbor Deena that he isn't crazy after a cashier short-changes him.",,"31,400,000"
7,10,120,The Gum,Andy Ackerman,Max Pross,14-Dec-95,31.4,8.4,"When Lloyd Braun comes back from the psychiatric hospital, Kramer takes him under his wing and convinces Jerry to buy gum from him and wear glasses that don't belong to him to prove that Lloyd isn't crazy. George tries to prove to his old neighbor Deena that he isn't crazy after a cashier short-changes him.",,"31,400,000"
7,11,121,The Rye,Andy Ackerman,Carol Leifer,4-Jan-96,35.1,8.8,"After George's parents take back the bread they gifted to Susan's parents, George makes Jerry find another loaf and tries to appease Susan's parents by taking them on Kramer's Manhattan horse tours, to disastrous consequences.",,"35,100,000"
7,12,122,The Caddy,Andy Ackerman,Gregg Kavet,25-Jan-96,32,8.4,"Elaine's floozy former ex-roommate Sue Ellen Mischkie returns. George locks his keys in his car and leaves it in the Yankees parking lot. Elaine, out of spite, buys Sue Ellen a bra for a birthday gift as she has never worn one. George, having successfully convinced Wilhelm and Steinbrenner that he's putting in extra hours, decides to skip town with Susan after learning that her father rebuilt the cabin. So George asks Kramer and Jerry to go to Yankee Stadium and take the fliers off of his car. The car is really dirty, and Jerry and Kramer decide to go take it to the ...",,"32,000,000"
7,12,122,The Caddy,Andy Ackerman,Andy Robin,25-Jan-96,32,8.4,"Elaine's floozy former ex-roommate Sue Ellen Mischkie returns. George locks his keys in his car and leaves it in the Yankees parking lot. Elaine, out of spite, buys Sue Ellen a bra for a birthday gift as she has never worn one. George, having successfully convinced Wilhelm and Steinbrenner that he's putting in extra hours, decides to skip town with Susan after learning that her father rebuilt the cabin. So George asks Kramer and Jerry to go to Yankee Stadium and take the fliers off of his car. The car is really dirty, and Jerry and Kramer decide to go take it to the ...",,"32,000,000"
7,13,123,The Seven,Andy Ackerman,Alec Berg,1-Feb-96,37.1,8.1,George becomes upset when Susan's cousin names her baby with the name he planned to use for his first child; Jerry questions his girlfriend's style.,,"37,100,000"
7,13,123,The Seven,Andy Ackerman,Jeff Schaffer,1-Feb-96,37.1,8.1,George becomes upset when Susan's cousin names her baby with the name he planned to use for his first child; Jerry questions his girlfriend's style.,,"37,100,000"
7,14,124,The Cadillac 1,Andy Ackerman,Larry David,8-Feb-96,35.9,8.3,"In this hour-long episode, Jerry performs the biggest show of his life in Atlantic City. He receives a rather generous pay check for the event, and decides to buy his father a Cadillac. Unfortunately, doing so puts Morty in the hot seat with the condo board of directors, where he serves as president. Morty is accused of stealing money from the board, and ultimately gets removed from his post as president and kicked out of the condo. Meanwhile, thanks to Elaine, George can score a date with ""My Cousin Vinny"" star Marisa Tomei but Elaine objects because of George's ...",,"35,900,000"
7,14,124,The Cadillac 1,Andy Ackerman,Jerry Seinfeld,8-Feb-96,35.9,8.3,"In this hour-long episode, Jerry performs the biggest show of his life in Atlantic City. He receives a rather generous pay check for the event, and decides to buy his father a Cadillac. Unfortunately, doing so puts Morty in the hot seat with the condo board of directors, where he serves as president. Morty is accused of stealing money from the board, and ultimately gets removed from his post as president and kicked out of the condo. Meanwhile, thanks to Elaine, George can score a date with ""My Cousin Vinny"" star Marisa Tomei but Elaine objects because of George's ...",,"35,900,000"
7,15,125,The Cadillac 2,Andy Ackerman,Larry David,8-Feb-96,35.9,8.3,"In this hour-long episode, Jerry performs the biggest show of his life in Atlantic City. He receives a rather generous pay check for the event, and decides to buy his father a Cadillac. Unfortunately, doing so puts Morty in the hot seat with the condo board of directors, where he serves as president. Morty is accused of stealing money from the board, and ultimately gets removed from his post as president and kicked out of the condo. Meanwhile, thanks to Elaine, George can score a date with ""My Cousin Vinny"" star Marisa Tomei but Elaine objects because of George's ...",,"35,900,000"
7,15,125,The Cadillac 2,Andy Ackerman,Jerry Seinfeld,8-Feb-96,35.9,8.3,"In this hour-long episode, Jerry performs the biggest show of his life in Atlantic City. He receives a rather generous pay check for the event, and decides to buy his father a Cadillac. Unfortunately, doing so puts Morty in the hot seat with the condo board of directors, where he serves as president. Morty is accused of stealing money from the board, and ultimately gets removed from his post as president and kicked out of the condo. Meanwhile, thanks to Elaine, George can score a date with ""My Cousin Vinny"" star Marisa Tomei but Elaine objects because of George's ...",,"35,900,000"
7,16,126,The Shower Head,Andy Ackerman,Peter Mehlman,15-Feb-96,32.3,8.3,"Peterman wants Elaine to go to Africa, but when Elaine tests positive for Opium in her physical, that means no dice. George tries to convince his parents to move to Florida so that he finally gets his ""buffer zone"", but they have problems with Jerry's parents. Kramer and Newman scheme to buy black market shower heads when the building switches to low-flow ones.",,"32,300,000"
7,16,126,The Shower Head,Andy Ackerman,Marjorie Gross,15-Feb-96,32.3,8.3,"Peterman wants Elaine to go to Africa, but when Elaine tests positive for Opium in her physical, that means no dice. George tries to convince his parents to move to Florida so that he finally gets his ""buffer zone"", but they have problems with Jerry's parents. Kramer and Newman scheme to buy black market shower heads when the building switches to low-flow ones.",,"32,300,000"
7,17,127,The Doll,Andy Ackerman,Tom Gammill,22-Feb-96,32.9,8,"George freaks out when he discovers that Susan has a doll that looks exactly like his mother. Jerry decides to use that as a bit on the Charles Grodin show when his prop gets destroyed in his carry-on luggage, but fellow comedian Sally Weaver screws up his bit by bringing him the wrong doll.",,"32,900,000"
7,17,127,The Doll,Andy Ackerman,Max Pross,22-Feb-96,32.9,8,"George freaks out when he discovers that Susan has a doll that looks exactly like his mother. Jerry decides to use that as a bit on the Charles Grodin show when his prop gets destroyed in his carry-on luggage, but fellow comedian Sally Weaver screws up his bit by bringing him the wrong doll.",,"32,900,000"
7,18,128,The Friars Club,Andy Ackerman,David Mandel,7-Mar-96,32.7,7.8,"Jerry has a hard time getting membership in the Friar's Club when the Flying Sandos Brothers take his jacket during a show. Meanwhile, Elaine suspects that a new co-worker (Rob Schneider) is faking a hearing disorder to get out of doing work.",,"32,700,000"
7,19,129,The Wig Master,Andy Ackerman,Spike Feresten,4-Apr-96,30.5,7.9,"Susan's friends are in town for the Broadway production of Joseph And The Amazing Technicolor Dreamcoat. Kramer gets to wear the coat and is mistaken for a pimp in public when he accuses a local parking lot of running a prostitution ring out of his car. Jerry buys a jacket and later returns it for spite. Elaine tries to buy a dress from the same guy Jerry gets the jacket from, but is stunned to learn that he's holding it until Elaine sleeps with him.",,"30,500,000"
7,20,130,The Calzone,Andy Ackerman,Alec Berg,25-Apr-96,28.5,8.9,"George gets Steinbrenner hooked on eggplant calzones from a local Italian restaurant. But George gets banned from the restaurant when he's accused of stealing from the tip jar. He then asks Kramer to pick up the calzones, but Kramer gets kicked out when he tries to pay with pennies. George's last resort in getting the calzones is Newman who wants a cut of every delivery. Meanwhile, Kramer will only wear clothing if it's straight from the dryer.",,"28,500,000"
7,20,130,The Calzone,Andy Ackerman,Jeff Schaffer,25-Apr-96,28.5,8.9,"George gets Steinbrenner hooked on eggplant calzones from a local Italian restaurant. But George gets banned from the restaurant when he's accused of stealing from the tip jar. He then asks Kramer to pick up the calzones, but Kramer gets kicked out when he tries to pay with pennies. George's last resort in getting the calzones is Newman who wants a cut of every delivery. Meanwhile, Kramer will only wear clothing if it's straight from the dryer.",,"28,500,000"
7,21,131,The Bottle Deposit 1,Andy Ackerman,Gregg Kavet,2-May-96,32.4,8.8,A garage mechanic steals Jerry's car. Elaine tries to win J. Peterman JFK's presidential golf clubs at an auction. George is asked to work on a mysterious assignment. Kramer and Newman run a recycling scam.,,"32,400,000"
7,21,131,The Bottle Deposit 1,Andy Ackerman,Andy Robin,2-May-96,32.4,8.8,A garage mechanic steals Jerry's car. Elaine tries to win J. Peterman JFK's presidential golf clubs at an auction. George is asked to work on a mysterious assignment. Kramer and Newman run a recycling scam.,,"32,400,000"
7,22,132,The Bottle Deposit 2,Andy Ackerman,Gregg Kavet,2-May-96,32.4,8.8,A garage mechanic steals Jerry's car. Elaine tries to win J. Peterman JFK's presidential golf clubs at an auction. George is asked to work on a mysterious assignment. Kramer and Newman run a recycling scam.,,"32,400,000"
7,22,132,The Bottle Deposit 2,Andy Ackerman,Andy Robin,2-May-96,32.4,8.8,A garage mechanic steals Jerry's car. Elaine tries to win J. Peterman JFK's presidential golf clubs at an auction. George is asked to work on a mysterious assignment. Kramer and Newman run a recycling scam.,,"32,400,000"
7,23,133,The Wait Out,Andy Ackerman,Peter Mehlman,9-May-96,29.9,8.2,A comment from George ends up causing a married couple to get divorced and Jerry and Elaine to date the soon-to-be exes. Kramer tries wearing jeans.,,"29,900,000"
7,23,133,The Wait Out,Andy Ackerman,Matt Selman ,9-May-96,29.9,8.2,A comment from George ends up causing a married couple to get divorced and Jerry and Elaine to date the soon-to-be exes. Kramer tries wearing jeans.,,"29,900,000"
7,23,133,The Wait Out,Andy Ackerman,Peter Mehlman,9-May-96,29.9,8.2,A comment from George ends up causing a married couple to get divorced and Jerry and Elaine to date the soon-to-be exes. Kramer tries wearing jeans.,,"29,900,000"
7,24,134,The Invitations,Andy Ackerman,Larry David,16-May-96,33.2,8.7,"It's finally time for George and Susan's wedding. George doesn't think he can go through with the wedding. But when Susan puts George in charge of the wedding invitations, George gets the cheapest ones in the lot, knowing that the glue for the envelopes is cheap. Unfortunately for Susan, the glue is also toxic and licking the envelopes has fatal consequences. Meanwhile, Jerry courts a woman just like him named Jeannie Steinman and holds up his end of George's ""pact"" (see episode ""The Engagement"").",,"33,200,000"
8,1,135,The Foundation,Andy Ackerman,Alec Berg,19-Sep-96,33.7,8.3,George enjoys the single life. Elaine takes over the catalog when J. Peterman suddenly goes missing. Kramer is taking karate lessons.,,"33,720,000"
8,1,135,The Foundation,Andy Ackerman,Jeff Schaffer,19-Sep-96,33.7,8.3,George enjoys the single life. Elaine takes over the catalog when J. Peterman suddenly goes missing. Kramer is taking karate lessons.,,"33,720,000"
8,2,136,The Soul Mate,Andy Ackerman,Peter Mehlman,26-Sep-96,33.2,8.2,George thinks the Board of Directors are talking behind his back. Kramer has a crush on Jerry's new girlfriend. Elaine doesn't see the big deal in having a baby.,,"33,240,000"
8,3,137,The Bizarro Jerry,Andy Ackerman,David Mandel,3-Oct-96,31.6,9.2,George uses Susan's death to pick up women. Elaine's new friend is Jerry's exact opposite. Jerry's new girlfriend has manly hands. Kramer pretends to work for an upscale firm.,,"31,620,000"
8,4,138,The Little Kicks,Andy Ackerman,Spike Feresten,10-Oct-96,32.2,8.8,"Jerry is forced to bootleg a movie for Kramer's friend. George tries the ""bad boy"" image. No one has the heart to tell Elaine that she's a terrible dancer.",,"32,240,000"
8,5,139,The Package,Andy Ackerman,Jennifer Crittenden,17-Oct-96,30.1,8.8,"A mysterious package arrives for Jerry. Elaine is curious about what the doctors are writing in her records. George tries to hit on the cute girl at the ""One Hour Photo"" place.",,"30,130,000"
8,6,140,The Fatigues,Andy Ackerman,Gregg Kavet,31-Oct-96,30.3,7.9,Jerry's new girlfriend's mentor is dating Bania. Kramer volunteers to host a Jewish singles mixer. George tries to study up on risk management. Elaine promotes a man she is afraid to fire.,,"30,330,000"
8,6,140,The Fatigues,Andy Ackerman,Andy Robin,31-Oct-96,30.3,7.9,Jerry's new girlfriend's mentor is dating Bania. Kramer volunteers to host a Jewish singles mixer. George tries to study up on risk management. Elaine promotes a man she is afraid to fire.,,"30,330,000"
8,7,141,The Checks,Andy Ackerman,Steve O'Donnell,7-Nov-96,32,8.3,"Jerry gets hundreds of royalty checks, worth 12 cents each, for appearing on a Japanese TV program and gets writer's cramp. George and Jerry pitch their pilot to Japanese TV executives.",,"32,010,000"
8,7,141,The Checks,Andy Ackerman,Tom Gammill,7-Nov-96,32,8.3,"Jerry gets hundreds of royalty checks, worth 12 cents each, for appearing on a Japanese TV program and gets writer's cramp. George and Jerry pitch their pilot to Japanese TV executives.",,"32,010,000"
8,7,141,The Checks,Andy Ackerman,Max Pross,7-Nov-96,32,8.3,"Jerry gets hundreds of royalty checks, worth 12 cents each, for appearing on a Japanese TV program and gets writer's cramp. George and Jerry pitch their pilot to Japanese TV executives.",,"32,010,000"
8,8,142,The Chicken Roaster,Andy Ackerman,Alec Berg,14-Nov-96,34.1,9,"Kenny Rogers' Roasters sets up shop across the street from Jerry and Kramer's apartments. Unfortunately, their unusually large chicken sign causes problems for everybody. Kramer and Jerry wind up switching apartments--and personalities--because of it. Jerry is freaked out by a wooden doll in Kramer's apartment, and Newman gets Kramer hooked on Kenny Roger's chicken. Elaine gets comfortable in her position as president of the catalog but is quickly accused of abusing the company credit card, especially when she buys George an expensive hat and George purposefully ...",,"34,090,000"
8,8,142,The Chicken Roaster,Andy Ackerman,Jeff Schaffer,14-Nov-96,34.1,9,"Kenny Rogers' Roasters sets up shop across the street from Jerry and Kramer's apartments. Unfortunately, their unusually large chicken sign causes problems for everybody. Kramer and Jerry wind up switching apartments--and personalities--because of it. Jerry is freaked out by a wooden doll in Kramer's apartment, and Newman gets Kramer hooked on Kenny Roger's chicken. Elaine gets comfortable in her position as president of the catalog but is quickly accused of abusing the company credit card, especially when she buys George an expensive hat and George purposefully ...",,"34,090,000"
8,9,143,The Abstinence,Andy Ackerman,Steve Koren,21-Nov-96,34.4,9.1,"Abstinence allows George to become a genius, but it turns Elaine into an idiot. Jerry gets bumped from career day at his old Jr. High School. Kramer turns his apartment into a smoking lounge and all the smoke disfigures his face.",,"34,350,000"
8,10,144,The Andrea Doria,Andy Ackerman,Spike Feresten,19-Dec-96,29.7,8.6,"A survivor of a shipwreck beats George out of an apartment, so George decides to tell the landlords the tragedies of his life in hopes of getting it back based on pity.",,"29,650,000"
8,11,145,The Little Jerry,Andy Ackerman,Jennifer Crittenden,9-Jan-97,34.5,8.1,Jerry bounces a check. Kramer buys a live chicken. George dates a female convict. Elaine dates a man who shaves his head.,,"34,480,000"
8,12,146,The Money,Andy Ackerman,Peter Mehlman,16-Jan-97,37.3,7.9,Jerry's parents believe he is financially unstable. Kramer has trouble sleeping with his girlfriend. Elaine enjoys her position as President of the J. Peterman catalog. George hopes to get his parents' money when they die.,,"37,340,000"
8,13,147,The Comeback,David Owen Trainor,Gregg Kavet,30-Jan-97,33.5,8.4,George tries to come up with a good comeback after someone insults him. Elaine falls in love with a mysterious employee at the video store. Kramer wants to die a certain way. Jerry takes advice from a tennis player who stinks.,,"33,500,000"
8,13,147,The Comeback,David Owen Trainor,Andy Robin,30-Jan-97,33.5,8.4,George tries to come up with a good comeback after someone insults him. Elaine falls in love with a mysterious employee at the video store. Kramer wants to die a certain way. Jerry takes advice from a tennis player who stinks.,,"33,500,000"
8,14,148,The Van Buren Boys,Andy Ackerman,Darin Henry,6-Feb-97,33.8,8.2,Kramer gets mixed up with a gang when he is mugged by them and mistakenly shows their secret sign.,,"33,820,000"
8,15,149,The Susie,Andy Ackerman,David Mandel,13-Feb-97,32,8.8,"Kramer sets his watch an hour ahead. George tries to avoid a breakup with his girlfriend. A colleague keeps calling Elaine, Susie. Jerry gambles on a basketball game, but the bookie can't pay him.",,"32,000,000"
8,16,150,The Pothole,Andy Ackerman,Steve O'Donnell,20-Feb-97,33.8,8.7,Jerry accidentally knocks his girlfriend's toothbrush in the toilet. George drops his keys in a pothole that is paved over. A restaurant refuses to deliver food to Elaine's address. Kramer adopts a highway.,,"33,830,000"
8,16,150,The Pothole,Andy Ackerman,Dan O'Keefe,20-Feb-97,33.8,8.7,Jerry accidentally knocks his girlfriend's toothbrush in the toilet. George drops his keys in a pothole that is paved over. A restaurant refuses to deliver food to Elaine's address. Kramer adopts a highway.,,"33,830,000"
8,17,151,The English Patient,Andy Ackerman,Steve Koren,13-Mar-97,31.3,8.7,"Elaine is dragged to see the movie ""The English Patient (1996) "" on multiple occasions, even though she absolutely hates the film.",,"31,270,000"
8,18,152,The Nap,Andy Ackerman,Gregg Kavet,10-Apr-97,32.2,8.9,George takes a nap under his desk. Kramer swims in the East River. Jerry has some maintenance done on his kitchen. Elaine's new boyfriend buys her a new mattress.,,"32,220,000"
8,18,152,The Nap,Andy Ackerman,Andy Robin,10-Apr-97,32.2,8.9,George takes a nap under his desk. Kramer swims in the East River. Jerry has some maintenance done on his kitchen. Elaine's new boyfriend buys her a new mattress.,,"32,220,000"
8,19,153,The Yada Yada,Andy Ackerman,Peter Mehlman,24-Apr-97,31.6,8.7,"George's new girlfriend keeps including ""Yada Yada"" in her stories. Jerry is offended by Tim Whatley's Jewish jokes. Elaine tries to help her friends adopt a baby. Kramer and Mickey fight over two women.",,"31,640,000"
8,19,153,The Yada Yada,Andy Ackerman,Jill Franklyn,24-Apr-97,31.6,8.7,"George's new girlfriend keeps including ""Yada Yada"" in her stories. Jerry is offended by Tim Whatley's Jewish jokes. Elaine tries to help her friends adopt a baby. Kramer and Mickey fight over two women.",,"31,640,000"
8,20,154,The Millennium,Andy Ackerman,Jennifer Crittenden,1-May-97,29.3,8.1,Kramer and Newman compete during the early planning of each of their millenium parties.,,"29,300,000"
8,21,155,The Muffin Tops,Andy Ackerman,Spike Feresten,8-May-97,31.1,8.5,Elaine opens a new bakery that sells only the tops of the muffins.,,"31,090,000"
8,22,156,The Summer of George,Andy Ackerman,Alec Berg,15-May-97,29.8,8.5,"Unemployed again, George decides to have a ""memorable"" summer. Jerry's new girlfriend has another dude. Kramer wins a Tony Award. A new woman at work is hostile towards Elaine.",,"29,800,000"
8,22,156,The Summer of George,Andy Ackerman,Jeff Schaffer,15-May-97,29.8,8.5,"Unemployed again, George decides to have a ""memorable"" summer. Jerry's new girlfriend has another dude. Kramer wins a Tony Award. A new woman at work is hostile towards Elaine.",,"29,800,000"
9,1,157,The Butter Shave,Andy Ackerman,Alec Berg,25-Sep-97,37.8,8.4,"Kramer discovers the amazing yet unknown uses of butter, but accidentally fries himself after using it as sunscreen.",,"37,780,000"
9,1,157,The Butter Shave,Andy Ackerman,Jeff Schaffer,25-Sep-97,37.8,8.4,"Kramer discovers the amazing yet unknown uses of butter, but accidentally fries himself after using it as sunscreen.",,"37,780,000"
9,1,157,The Butter Shave,Andy Ackerman,David Mandel,25-Sep-97,37.8,8.4,"Kramer discovers the amazing yet unknown uses of butter, but accidentally fries himself after using it as sunscreen.",,"37,780,000"
9,2,158,The Voice,Andy Ackerman,Alec Berg,2-Oct-97,30.9,8.1,George's colleagues try to force him to leave. Jerry makes fun of his girlfriend's bellybutton. Kramer hires an intern. Elaine gets back together with David Puddy.,,"30,930,000"
9,2,158,The Voice,Andy Ackerman,Jeff Schaffer,2-Oct-97,30.9,8.1,George's colleagues try to force him to leave. Jerry makes fun of his girlfriend's bellybutton. Kramer hires an intern. Elaine gets back together with David Puddy.,,"30,930,000"
9,2,158,The Voice,Andy Ackerman,David Mandel,2-Oct-97,30.9,8.1,George's colleagues try to force him to leave. Jerry makes fun of his girlfriend's bellybutton. Kramer hires an intern. Elaine gets back together with David Puddy.,,"30,930,000"
9,3,159,The Serenity Now,Andy Ackerman,Steve Koren,9-Oct-97,30.2,8.8,Jerry opens up his feelings. Elaine is getting hit on by the Jews. Kramer gets a screen door. George helps his father sell computers.,,"30,150,000"
9,4,160,The Blood,Andy Ackerman,Dan O'Keefe,16-Oct-97,31.5,8.4,Jerry's parents hire their friend Izzy Mandelbaum to become Jerry's personal trainer while George decides to associate food and television with his love life.,,"31,450,000"
9,5,161,The Junk Mail,Andy Ackerman,Spike Feresten,30-Oct-97,30.2,7.9,Kramer is annoyed with the catalogs he keeps getting in the mail. Elaine falls in love with a guy because of his smile. George's parents are avoiding him. Jerry can't find it in his heart to reject a gift from an old school friend.,,"30,240,000"
9,6,162,The Merv Griffin Show,Andy Ackerman,Bruce Eric Kaplan,6-Nov-97,31.6,9.2,"George runs over a flock of pigeons. Jerry's girlfriend has a vintage toy collection she won't let him touch. A new co-worker is freaking Elaine out. Kramer rebuilds the set of ""The Merv Griffin Show"" in his apartment.",,"31,640,000"
9,7,163,The Slicer,Andy Ackerman,Gregg Kavet,13-Nov-97,32.8,8.5,Elaine borrows Kramer's meat slicer to feed her neighbor's cat while George tries to hide his not-so-great past from his new boss.,,"32,770,000"
9,7,163,The Slicer,Andy Ackerman,Andy Robin,13-Nov-97,32.8,8.5,Elaine borrows Kramer's meat slicer to feed her neighbor's cat while George tries to hide his not-so-great past from his new boss.,,"32,770,000"
9,7,163,The Slicer,Andy Ackerman,Darin Henry ,13-Nov-97,32.8,8.5,Elaine borrows Kramer's meat slicer to feed her neighbor's cat while George tries to hide his not-so-great past from his new boss.,,"32,770,000"
9,7,163,The Slicer,Andy Ackerman,Gregg Kavet,13-Nov-97,32.8,8.5,Elaine borrows Kramer's meat slicer to feed her neighbor's cat while George tries to hide his not-so-great past from his new boss.,,"32,770,000"
9,7,163,The Slicer,Andy Ackerman,Andy Robin,13-Nov-97,32.8,8.5,Elaine borrows Kramer's meat slicer to feed her neighbor's cat while George tries to hide his not-so-great past from his new boss.,,"32,770,000"
9,8,164,The Betrayal,Andy Ackerman,David Mandel,20-Nov-97,34,8.7,Elaine and the gang head to India to attend a wedding; Jerry betrays George by having sex with his prospective girlfriend; Kramer grapples with a malignant wish.,,"33,990,000"
9,8,164,The Betrayal,Andy Ackerman,Peter Mehlman,20-Nov-97,34,8.7,Elaine and the gang head to India to attend a wedding; Jerry betrays George by having sex with his prospective girlfriend; Kramer grapples with a malignant wish.,,"33,990,000"
9,9,165,The Apology,Andy Ackerman,Jennifer Crittenden,11-Dec-97,30.5,8.3,George is angered when an old acquaintance withholds a 12-Step-mandated apology; Jerry's girlfriend is too comfortable with her nudity; Elaine works with a germaphobe.,,"30,470,000"
9,10,166,The Strike,Andy Ackerman,Dan O'Keefe,18-Dec-97,30.8,8.8,Jerry goes out with a woman who is beautiful one day and ugly the next. Kramer goes back to work at H&H Bagels. George makes up a charity. Elaine gives a fake number to a man.,,"30,790,000"
9,10,166,The Strike,Andy Ackerman,Alec Berg,18-Dec-97,30.8,8.8,Jerry goes out with a woman who is beautiful one day and ugly the next. Kramer goes back to work at H&H Bagels. George makes up a charity. Elaine gives a fake number to a man.,,"30,790,000"
9,10,166,The Strike,Andy Ackerman,Jeff Schaffer,18-Dec-97,30.8,8.8,Jerry goes out with a woman who is beautiful one day and ugly the next. Kramer goes back to work at H&H Bagels. George makes up a charity. Elaine gives a fake number to a man.,,"30,790,000"
9,11,167,The Dealership,Andy Ackerman,Steve Koren,8-Jan-98,32.9,8.6,Jerry looks to buy a new car from Elaine's boyfriend. George tries to find a snack. Kramer test drives a car.,,"32,860,000"
9,12,168,The Reverse Peephole,Andy Ackerman,Spike Feresten,15-Jan-98,33.5,8.1,Elaine is embarrassed by Puddy's fur coat. Kramer tries to keep Newman from getting evicted. George carries everything in his wallet. Jerry is through with wallets.,,"33,480,000"
9,13,169,The Cartoon,Andy Ackerman,Bruce Eric Kaplan,29-Jan-98,33.2,7.8,Sally Weaver makes fun of Jerry. George's new girlfriend looks just like Jerry. Kramer takes a vow of silence. Elaine gets a job drawing cartoons for the New Yorker.,,"33,190,000"
9,14,170,The Strongbox,Andy Ackerman,Dan O'Keefe,5-Feb-98,31.6,7.6,George's new girlfriend refuses to break up with him. Jerry doesn't help out a neighbor. Elaine's new boyfriend is poor. Kramer tries to find a good place to hide his key for his strongbox.,,"31,630,000"
9,14,170,The Strongbox,Andy Ackerman,Billy Kimball ,5-Feb-98,31.6,7.6,George's new girlfriend refuses to break up with him. Jerry doesn't help out a neighbor. Elaine's new boyfriend is poor. Kramer tries to find a good place to hide his key for his strongbox.,,"31,630,000"
9,14,170,The Strongbox,Andy Ackerman,Dan O'Keefe,5-Feb-98,31.6,7.6,George's new girlfriend refuses to break up with him. Jerry doesn't help out a neighbor. Elaine's new boyfriend is poor. Kramer tries to find a good place to hide his key for his strongbox.,,"31,630,000"
9,15,171,The Wizard,Andy Ackerman,Steve Lookner,26-Feb-98,30.5,7.8,Jerry goes down to Florida for his father's birthday. George tries to avoid Susan's parents. Elaine can't figure out her new boyfriend's nationality. Kramer decides to retire.,,"30,510,000"
9,16,172,The Burning,Andy Ackerman,Jennifer Crittenden,19-Mar-98,30.9,8.3,Elaine finds out that Puddy is religious. Kramer pretends to have gonorrhea. Jerry's new girlfriend has a tractor story to tell him. George wants everyone at work to like him.,,"30,920,000"
9,17,173,The Bookstore,Andy Ackerman,Spike Feresten,9-Apr-98,29.6,8.2,George is forced to buy a book he took with him into the bathroom. Jerry finds out that his Uncle Leo is a shoplifter. Elaine doesn't want to be known as the office skank. Kramer and Newman start a Hong Kong rickshaw business.,,"29,600,000"
9,17,173,The Bookstore,Andy Ackerman,Darin Henry,9-Apr-98,29.6,8.2,George is forced to buy a book he took with him into the bathroom. Jerry finds out that his Uncle Leo is a shoplifter. Elaine doesn't want to be known as the office skank. Kramer and Newman start a Hong Kong rickshaw business.,,"29,600,000"
9,17,173,The Bookstore,Andy Ackerman,Marc Jaffe ,9-Apr-98,29.6,8.2,George is forced to buy a book he took with him into the bathroom. Jerry finds out that his Uncle Leo is a shoplifter. Elaine doesn't want to be known as the office skank. Kramer and Newman start a Hong Kong rickshaw business.,,"29,600,000"
9,17,173,The Bookstore,Andy Ackerman,Spike Feresten,9-Apr-98,29.6,8.2,George is forced to buy a book he took with him into the bathroom. Jerry finds out that his Uncle Leo is a shoplifter. Elaine doesn't want to be known as the office skank. Kramer and Newman start a Hong Kong rickshaw business.,,"29,600,000"
9,18,174,The Frogger,Andy Ackerman,Gregg Kavet,23-Apr-98,30.7,8.9,George is obsessed with preserving his Frogger high score for posterity; Jerry stays one step ahead of a serial killer; Elaine eats Peterman's expensive cake:,,"30,660,000"
9,18,174,The Frogger,Andy Ackerman,Andy Robin,23-Apr-98,30.7,8.9,George is obsessed with preserving his Frogger high score for posterity; Jerry stays one step ahead of a serial killer; Elaine eats Peterman's expensive cake:,,"30,660,000"
9,18,174,The Frogger,Andy Ackerman,Steve Koren,23-Apr-98,30.7,8.9,George is obsessed with preserving his Frogger high score for posterity; Jerry stays one step ahead of a serial killer; Elaine eats Peterman's expensive cake:,,"30,660,000"
9,18,174,The Frogger,Andy Ackerman,Dan O'Keefe ,23-Apr-98,30.7,8.9,George is obsessed with preserving his Frogger high score for posterity; Jerry stays one step ahead of a serial killer; Elaine eats Peterman's expensive cake:,,"30,660,000"
9,18,174,The Frogger,Andy Ackerman,Gregg Kavet,23-Apr-98,30.7,8.9,George is obsessed with preserving his Frogger high score for posterity; Jerry stays one step ahead of a serial killer; Elaine eats Peterman's expensive cake:,,"30,660,000"
9,18,174,The Frogger,Andy Ackerman,Andy Robin,23-Apr-98,30.7,8.9,George is obsessed with preserving his Frogger high score for posterity; Jerry stays one step ahead of a serial killer; Elaine eats Peterman's expensive cake:,,"30,660,000"
9,19,175,The Maid,Andy Ackerman,Alec Berg,30-Apr-98,33.3,8.1,"Jerry gets into romance with his maid; George struggles to get the nickname ""T-Bone"" around the office; Elaine searches for a new telephone number.",,"33,320,000"
9,19,175,The Maid,Andy Ackerman,David Mandel,30-Apr-98,33.3,8.1,"Jerry gets into romance with his maid; George struggles to get the nickname ""T-Bone"" around the office; Elaine searches for a new telephone number.",,"33,320,000"
9,19,175,The Maid,Andy Ackerman,Jeff Schaffer,30-Apr-98,33.3,8.1,"Jerry gets into romance with his maid; George struggles to get the nickname ""T-Bone"" around the office; Elaine searches for a new telephone number.",,"33,320,000"
9,19,175,The Maid,Andy Ackerman,Kit Boss,30-Apr-98,33.3,8.1,"Jerry gets into romance with his maid; George struggles to get the nickname ""T-Bone"" around the office; Elaine searches for a new telephone number.",,"33,320,000"
9,19,175,The Maid,Andy Ackerman,Peter Mehlman ,30-Apr-98,33.3,8.1,"Jerry gets into romance with his maid; George struggles to get the nickname ""T-Bone"" around the office; Elaine searches for a new telephone number.",,"33,320,000"
9,19,175,The Maid,Andy Ackerman,Alec Berg,30-Apr-98,33.3,8.1,"Jerry gets into romance with his maid; George struggles to get the nickname ""T-Bone"" around the office; Elaine searches for a new telephone number.",,"33,320,000"
9,19,175,The Maid,Andy Ackerman,David Mandel,30-Apr-98,33.3,8.1,"Jerry gets into romance with his maid; George struggles to get the nickname ""T-Bone"" around the office; Elaine searches for a new telephone number.",,"33,320,000"
9,19,175,The Maid,Andy Ackerman,Jeff Schaffer,30-Apr-98,33.3,8.1,"Jerry gets into romance with his maid; George struggles to get the nickname ""T-Bone"" around the office; Elaine searches for a new telephone number.",,"33,320,000"
9,20,176,The Puerto Rican Day,Andy Ackerman,Alec Berg,7-May-98,38.8,8,"Jerry, George, Kramer and Elaine get stuck in standstill traffic due to the massive Puerto Rican Day Parade.",,"38,780,000"
9,20,176,The Puerto Rican Day,Andy Ackerman, Jennifer Crittenden,7-May-98,38.8,8,"Jerry, George, Kramer and Elaine get stuck in standstill traffic due to the massive Puerto Rican Day Parade.",,"38,780,000"
9,20,176,The Puerto Rican Day,Andy Ackerman, Spike Feresten,7-May-98,38.8,8,"Jerry, George, Kramer and Elaine get stuck in standstill traffic due to the massive Puerto Rican Day Parade.",,"38,780,000"
9,20,176,The Puerto Rican Day,Andy Ackerman, Bruce Eric Kaplan,7-May-98,38.8,8,"Jerry, George, Kramer and Elaine get stuck in standstill traffic due to the massive Puerto Rican Day Parade.",,"38,780,000"
9,20,176,The Puerto Rican Day,Andy Ackerman, Gregg Kavet,7-May-98,38.8,8,"Jerry, George, Kramer and Elaine get stuck in standstill traffic due to the massive Puerto Rican Day Parade.",,"38,780,000"
9,20,176,The Puerto Rican Day,Andy Ackerman, Steve Koren,7-May-98,38.8,8,"Jerry, George, Kramer and Elaine get stuck in standstill traffic due to the massive Puerto Rican Day Parade.",,"38,780,000"
9,20,176,The Puerto Rican Day,Andy Ackerman, David Mandel,7-May-98,38.8,8,"Jerry, George, Kramer and Elaine get stuck in standstill traffic due to the massive Puerto Rican Day Parade.",,"38,780,000"
9,20,176,The Puerto Rican Day,Andy Ackerman, Dan O'Keefe,7-May-98,38.8,8,"Jerry, George, Kramer and Elaine get stuck in standstill traffic due to the massive Puerto Rican Day Parade.",,"38,780,000"
9,20,176,The Puerto Rican Day,Andy Ackerman, Andy Robin,7-May-98,38.8,8,"Jerry, George, Kramer and Elaine get stuck in standstill traffic due to the massive Puerto Rican Day Parade.",,"38,780,000"
9,20,176,The Puerto Rican Day,Andy Ackerman, Jeff Schaffer,7-May-98,38.8,8,"Jerry, George, Kramer and Elaine get stuck in standstill traffic due to the massive Puerto Rican Day Parade.",,"38,780,000"
9,21,177,The Chronicle,Andy Ackerman,Darin Henry,14-May-98,58.5,7.3,"Just as the four are about to go to the movies, Jerry looks back on the past nine years with the audience.",,"58,530,000"
9,22,178,The Clip Show,Andy Ackerman,Darin Henry,14-May-98,58.5,7.3,"Just as the four are about to go to the movies, Jerry looks back on the past nine years with the audience.",,"58,530,000"
9,23,179,The Finale 1,Andy Ackerman,Larry David,14-May-98,76.3,7.3,"After George and Jerry land a production deal with NBC, the four head out for Paris on NBC's private plane and are waylaid in a small Massachusetts town.",,"76,260,000"
9,24,180,The Finale 2,Andy Ackerman,Larry David,14-May-98,76.3,7.3,"After George and Jerry land a production deal with NBC, the four head out for Paris on NBC's private plane and are waylaid in a small Massachusetts town.",,"76,260,000"
